\relax 
\providecommand{\transparent@use}[1]{}
\providecommand \oddpage@label [2]{}
\babel@aux{italian}{}
\babel@aux{italian}{}
\@writefile{toc}{\contentsline {section}{\numberline {1}Equazioni di Maxwell}{1}}
\newlabel{maxwell}{{1}{1}}
\newlabel{tab:maxwell}{{1}{1}}
\@writefile{toc}{\contentsline {section}{\numberline {2}Risolvere Poisson o Laplace}{1}}
\newlabel{poislap}{{2}{1}}
\@writefile{toc}{\contentsline {subsection}{\numberline {2.1}Funzione di Green}{1}}
\@writefile{toc}{\contentsline {subsection}{\numberline {2.2}Polinomi di Legendre}{1}}
\@writefile{toc}{\contentsline {subsection}{\numberline {2.3}Armoniche sferiche}{2}}
\@writefile{toc}{\contentsline {section}{\numberline {3}Biot-Savart e altro magnetismo}{2}}
\newlabel{bs}{{3}{2}}
\@writefile{toc}{\contentsline {subsection}{\numberline {3.1}Multipoli magnetici}{2}}
\@writefile{toc}{\contentsline {section}{\numberline {4}Dipoli e altri cazzilli}{3}}
\newlabel{dip}{{4}{3}}
\@writefile{toc}{\contentsline {section}{\numberline {5}Operatori differenziali}{3}}
\newlabel{diff}{{5}{3}}
\@writefile{toc}{\contentsline {subsection}{\numberline {5.1}Gradiente}{3}}
\@writefile{toc}{\contentsline {subsection}{\numberline {5.2}Divergenza}{3}}
\@writefile{toc}{\contentsline {subsection}{\numberline {5.3}Rotore}{3}}
\@writefile{toc}{\contentsline {subsection}{\numberline {5.4}Laplaciano}{3}}
\@writefile{toc}{\contentsline {section}{\numberline {6}Bilancio energetico}{4}}
\newlabel{bil}{{6}{4}}
\@writefile{toc}{\contentsline {subsection}{\numberline {6.1}Teorema di Poynting}{4}}
\@writefile{toc}{\contentsline {subsection}{\numberline {6.2}Tensore degli sforzi}{4}}
\@writefile{toc}{\contentsline {section}{\numberline {7}Irraggiamento}{4}}
\newlabel{ray}{{7}{4}}
\@writefile{toc}{\contentsline {section}{\numberline {8}Relativit\IeC {\`a}}{5}}
\newlabel{rel}{{8}{5}}
\@writefile{toc}{\contentsline {subsection}{\numberline {8.1}Quadrivettori controvarianti}{5}}
\@writefile{toc}{\contentsline {subsection}{\numberline {8.2}Dinamica}{5}}
